<?xml version="1.0" encoding="utf-8"?>
<!-- Generator: Adobe Illustrator 22.0.1, SVG Export Plug-In . SVG Version: 6.00 Build 0)  -->
<svg version="1.1" id="Ebene_1" xmlns="http://www.w3.org/2000/svg" xmlns:xlink="http://www.w3.org/1999/xlink" x="0px" y="0px"
	 viewBox="0 0 100 125" style="enable-background:new 0 0 100 125;" xml:space="preserve">
<style type="text/css">
	.st0{fill:none;stroke:#2d78bf;stroke-width:5;stroke-miterlimit:10;}
	.st1{fill:#2d78bf;}
</style>
<path class="st0" d="M16.3,50.5C21.2,36.7,34.5,26.8,50,26.8c19.7,0,35.8,16,35.8,35.8S69.7,98.2,50,98.2
	c-15.4,0-28.5-9.7-33.6-23.4"/>
<rect x="13.2" y="60.8" class="st1" width="47.8" height="4.2"/>
<rect x="48.1" y="56.9" transform="matrix(-0.7071 -0.7071 0.7071 -0.7071 53.3464 140.1736)" class="st1" width="15.3" height="4.2"/>
<rect x="48.1" y="64.7" transform="matrix(-0.7071 0.7071 -0.7071 -0.7071 142.324 74.6373)" class="st1" width="15.3" height="4.2"/>
</svg>
