<?xml version="1.0" encoding="utf-8"?>
<!-- Generator: Adobe Illustrator 22.0.1, SVG Export Plug-In . SVG Version: 6.00 Build 0)  -->
<svg version="1.1" id="Ebene_1" xmlns="http://www.w3.org/2000/svg" xmlns:xlink="http://www.w3.org/1999/xlink" x="0px" y="0px"
	 viewBox="0 0 100 125" style="enable-background:new 0 0 100 125;" xml:space="preserve">
<style type="text/css">
	.st0{fill:none;stroke:#ffffff;stroke-width:5;stroke-miterlimit:10;}
	.st1{fill:#ffffff;}
</style>
<circle class="st0" cx="50.2" cy="61.7" r="35.8"/>
<rect x="44.2" y="56" class="st1" width="11.1" height="4"/>
<rect x="48.8" y="59.7" class="st1" width="6.6" height="21"/>
<circle class="st1" cx="52" cy="47" r="4.2"/>
</svg>
