<svg xmlns="http://www.w3.org/2000/svg" viewBox="153 -1471.474 4 4.039">
  <defs>
    <style>
      .cls-1 {
        fill: #0278be;
      }
    </style>
  </defs>
  <ellipse id="Ellipse_63" data-name="Ellipse 63" class="cls-1" cx="2" cy="2.019" rx="2" ry="2.019" transform="translate(153 -1471.474)"/>
</svg>
